id,cancer
0015ceb851d7251b8f399e39779d1e7d,1
0030a160d58723ff36d73f41b170ec21,0
003f41c78e6acfa92430a057ac0b306e,0
006b96310a37b36cccb2ab48d10b49a3,1
008464bb8521d09a42985dd8add3d0d2,1
0092c13f9e00a3717fdc940641f00015,0
00986bebc45e12038ef0ce3e9962b51a,0
00cba091fa4ad62cc3200a657aeb957e,0
00edff4f51a893d80dae2d42a7f45ad1,1
0121c2845f2b7df060945b072b2515d7,0
013395589c01aa01f8df81d80fb0e2b8,0
01de8323fa065a8963533c4a86f2f6c1,0
01e349d34c06410e1da273add27be25c,0
01f1140c8e951e2a921b61c9a7e782c2,0
024efb7a1e67dc820eb61cbdaa090166,0
0257df465d9e4150adef13303433ff1e,1
0268f3a7a17412178cfb039e71799a80,0
026be5d5e652b6a7488669d884ebe297,0
02801e3bbcc6966cb115a962012c35df,1
028996723faa7840bb57f57e28275e4c,1
0334c8242ce7ee1a6c1263096e4cc535,0
03fb0d0fdb187ee1160f09386b28c3f2,0
03ff23e445787886f8b0cb192b3c154d,0
043ed6cb6054cc13804a3dca342fa4d0,0
0482c444ac838adc5aa00d1064c976c1,0
04a3187ec2ed4198a25033071897bffc,0
04a52f49cdbfb8b99789b9e93f1ad319,0
04a8c47583142181728056310759dea1,1
04cfc5efa4c8c2a8944c8b9fa6cb04d1,0
04e5d435fa01b0958e3274be73312cac,0
04fca9fbec0b803326488ade96897f6e,0
05609fdb8fa0895ac8a9be373144dac7,1
059d8c14b2256a2ba4e38ac511700203,1
05a20caf6ab6df4643644c953f06a5eb,0
064366faa1a83fdcb18b2538f1717290,1
0679e5fd67b7441b8094494033f3881f,0
0700108170c91ea2219006e9484999ef,0
0708c00f6117ed977bbe1b462b56848c,1
07349deeea878c723317a1ce42cc7e58,1
07abb7bec548d1c0ccef088ce934e517,0
07bca4290a2530091ce1d5f200d9d526,1
07fdb853ff90ce3c6d5c91f619ed714e,0
080e6a00e69888fd620894f9fd0714b1,0
081f4a90f24ac33c14b61b97969b7f81,1
08528b8817429d12b7ce2bf444d264f9,0
0852f5124d69d7f8cd35fa31e1364d29,0
08643d7b9ce18405fb63f63dda258e76,0
086f95a932c83faed289854083f48831,0
0890a698c0a6ce5db48b1467011bf8d2,0
089b8f10743e449a0f64f8f311dd8a46,0
08acb3440eb23385724d006403feb585,0
099cec971282b1531d297e5d0d423598,0
09b1c678fc1009d84a038cd879be4198,0
09d7c4a3e1076dcfcae2b0a563a28364,1
09ee522a3b7dbea48aa6d39afe240129,0
09fdf599084b816247ba38d95b3c9d80,0
0a099f2549429d29b32f349e95fb2244,0
0a0c32c9e08cc2ea76a71649de56be6d,0
0a38e7597ca26f9374f8ea2770ba870d,0
0acbebb8d463b4b9ca88cf38431aac69,1
0bd0e3056cbf23a1cb7f0f0b18446068,0
0c0de3749d4fe175b7a5098b060982a1,1
0c37613214faddf8701ca41e6d43f56e,1
0c59313f52304e25d5a7dcf9877633b1,0
0c60f4b87afcb3e2dfa65abbbf3ef2f9,1
0c98fcb55e3f36d0c2b6507f62f4c5f1,0
0c9d8314f9c69840e25febabb1229fa4,0
0ca943d821204ceb089510f836a367fd,0
0d06d764d3c07572074d468b4cff954f,1
0d19f1c627df49eb223771c28548350e,0
0d2fcf787026fece4e57be167d079383,0
0d941a3ad6c889ac451caf89c46cb92a,0
0ddeb08e9c97227853422bd71a2a695e,0
0de72529c30fe642bc60dcb75c87f6bd,0
0e7ffa620c6db473b70c8454f215306b,0
0eafe9b9182b80c6d67015a2062f5143,0
0eb39d23d0f68ade9b5d8e6b3aee04d2,0
0ee336c585bf7eb1011df476891c5102,0
0f5ab1976a1b1ef1c2eb1d340b0ce9c4,1
0fb1b54da1e66c60a57db9c52f945e25,0
0fe244f21893c45fbb877f54d008518b,0
0fe9dd36f4dece7f4ec017433c4d4a50,0
0ff552aa083ecfabaf1cfd65b0a8e674,1
101a2999d28ce05788e6add3a28d4726,0
1030bb45e9f660c3466f013dcb270520,0
1098cb63ea33f752a850929234576bcb,0
10a9c32039971eb12f3aecf76ac20f8c,0
10aa518193fa5b89b305a806d1dfb150,0
10f03fe0b77d39c758d6fb12304edfdb,0
10ff16e329c64a6a290a7a4139a5f4ae,0
11616de262f844e6542d3c65d9238b6e,0
1183f213c1c821df18aad63890920403,0
118be21b7e0c3058b29a524686391c66,1
11b09ff9de7382d83f79cc81f89f5894,0
11f10c2a0bfd231deeec98d69e4d0767,0
11fe5426ef497bc490b9f1465f1fb25e,1
122c5c959fd98036c9972eec2062dc59,0
124c4188604434bcdec8358c8ddf9a8b,0
124e68a78f9c092a2f16f9214e91268f,0
1278988821a696e534c6c93ecdd4ff0c,0
12e0e2036f61c8a52ee4471bf813c36a,1
1344e604281e68ac71f25c02e7637992,0
135f21a84ac903a1d8dfbb0dfe46d792,0
13bb12b3b27d5a7b4b142503a1ae9e73,1
14248ec22193bed1e087755df5a28509,0
1427be78bcf4aba96c5054b697be9b5b,1
149cc798827099f8bdb97cf702027305,1
149ff4b37a684a73869d2d88e3fd4d0e,0
14afefc82d992018c485949285d20c03,0
14c534e0b7c3176d9106c6215d0aa8c6,0
14f713c1ef037f6c531cffdff0e5fb2c,1
154a79706bcecd0402b913d4bee9eed7,0
155893351afed6c68893397d19555fd8,0
15aa585fb2d3018b295df8619f2d1cf7,1
1615ace332b9d79be4e0e9fa32c71e9e,0
1631637f08f27347e8f23d7a0e18c100,0
16377fe7caf072d882f234dbbff9ef6c,0
166a2a476b7b84c975fb65162acc0798,0
169b5bde441e8aa3df2766e2e02cda08,1
16a4184e565f589622a70e82957ab54e,0
1748ad43b222be66f3e5ae4bd70c02ac,0
174a9fc87f54d6def3730954fbafc99d,0
178663e1e238cdfa4d4eb9679e5d0aa4,0
17f5ae9fa49c4e47624f344d29bd03eb,0
17ffaa3e8b53cc48e97fc6b87114e6dd,0
180737a8b34cf2c88b00dfad3e7556ae,0
184c61740244f4ce8fb985af9bb3d8e8,1
184fa4ae2b7ae010625d89f10186f1c5,1
185bc9d9fa3a58fea90778215c69d35b,1
186a0877503b047a77eb9b38083be9c1,0
186d95f7c17fd666726c10251072d44b,0
18f49fee33af677f0ce2ba655c5ec835,0
191fa0e017185de2c802bbe94edad2ed,0
19409b302d6c143d4f754146e91d4cfe,0
195842462645f0f331147a4c6b129a37,0
197e035d3aed52b5a2a0de3ee4d5fcea,0
198d3ff4979a9a89f78ac4b4a0fe0638,1
199ff05d08ade6e298d37cc542bc3565,0
19bb6a9bc007ad75a4777e5298354cb4,0
19ca60da880961c50f1b99b66f252e8f,0
19d95b5828aeba8073fcbb12979f312b,0
19f3b4dea7af5d6e13acb472d6af23d8,0
1a41350d4bbd74b7e0e28239cefa84c2,0
1a91ca95390756518700877893ac195b,0
1a9e2aad4b87512636f4f9d82c36a3ef,0
1acbe17dc8f9f59d2fd167b2aa6c650f,0
1b17c83c3b0cb973e41f9121e562d030,0
1b2355e6054759f2f0eb2542ed382b78,0
1b7ca8dad5c36feb0a6abf8079173e22,0
